{
  "project_info": {
    "project_number": "321119506454",
    "firebase_url": "https://ata-rnd.firebaseio.com",
    "project_id": "ata-rnd",
    "storage_bucket": "ata-rnd.appspot.com"
  },
  "client": [
    {
      "client_info": {
        "mobilesdk_app_id": "1:321119506454:android:de9cda504983330411a537",
        "android_client_info": {
          "package_name": "com.bca.ata.firebaseapp"
        }
      },
      "oauth_client": [
        {
          "client_id": "321119506454-7g7cl6qqahlr6hpo22pu6eipsmckhfqj.apps.googleusercontent.com",
          "client_type": 3
        }
      ],
      "api_key": [
        {
          "current_key": "AIzaSyD-Xu7fqz42Xqjdz7p4_Pm_gAirj6xZP0A"
        }
      ],
      "services": {
        "appinvite_service": {
          "other_platform_oauth_client": [
            {
              "client_id": "321119506454-7g7cl6qqahlr6hpo22pu6eipsmckhfqj.apps.googleusercontent.com",
              "client_type": 3
            }
          ]
        }
      }
    }
  ],
  "configuration_version": "1"
}